EESchema Schematic File Version 2
LIBS:power
LIBS:device
LIBS:switches
LIBS:relays
LIBS:motors
LIBS:transistors
LIBS:conn
LIBS:linear
LIBS:regul
LIBS:74xx
LIBS:cmos4000
LIBS:adc-dac
LIBS:memory
LIBS:xilinx
LIBS:microcontrollers
LIBS:dsp
LIBS:microchip
LIBS:analog_switches
LIBS:motorola
LIBS:texas
LIBS:intel
LIBS:audio
LIBS:interface
LIBS:digital-audio
LIBS:philips
LIBS:display
LIBS:cypress
LIBS:siliconi
LIBS:opto
LIBS:atmel
LIBS:contrib
LIBS:valves
LIBS:stm32
LIBS:lora
LIBS:gps
LIBS:dog_collar-cache
EELAYER 25 0
EELAYER END
$Descr A4 11693 8268
encoding utf-8
Sheet 1 1
Title "Dog collar with evaluation boards (STM32 nucleo F4 and L4)"
Date "2020-08-15"
Rev "0.0.1"
Comp ""
Comment1 ""
Comment2 ""
Comment3 ""
Comment4 ""
$EndDescr
Text Notes 1025 1225 0    178  ~ 36
Collar
Text Notes 6875 1150 0    178  ~ 36
Remote control
$Comp
L SW_Push SW1
U 1 1 5F60D7D7
P 9600 3450
F 0 "SW1" H 9650 3550 50  0000 L CNN
F 1 "SW_Push" H 9600 3390 50  0000 C CNN
F 2 "" H 9600 3650 50  0001 C CNN
F 3 "" H 9600 3650 50  0001 C CNN
	1    9600 3450
	1    0    0    -1  
$EndComp
$Comp
L SW_Push SW2
U 1 1 5F60D80A
P 9600 3850
F 0 "SW2" H 9650 3950 50  0000 L CNN
F 1 "SW_Push" H 9600 3790 50  0000 C CNN
F 2 "" H 9600 4050 50  0001 C CNN
F 3 "" H 9600 4050 50  0001 C CNN
	1    9600 3850
	1    0    0    -1  
$EndComp
$Comp
L R R1
U 1 1 5F60D874
P 9225 5075
F 0 "R1" V 9305 5075 50  0000 C CNN
F 1 "R" V 9225 5075 50  0000 C CNN
F 2 "" V 9155 5075 50  0001 C CNN
F 3 "" H 9225 5075 50  0001 C CNN
	1    9225 5075
	1    0    0    -1  
$EndComp
$Comp
L R R2
U 1 1 5F60D8B5
P 9675 5075
F 0 "R2" V 9755 5075 50  0000 C CNN
F 1 "R" V 9675 5075 50  0000 C CNN
F 2 "" V 9605 5075 50  0001 C CNN
F 3 "" H 9675 5075 50  0001 C CNN
	1    9675 5075
	1    0    0    -1  
$EndComp
$Comp
L LED D1
U 1 1 5F60D8D6
P 9225 5550
F 0 "D1" H 9225 5650 50  0000 C CNN
F 1 "LED" H 9225 5450 50  0000 C CNN
F 2 "" H 9225 5550 50  0001 C CNN
F 3 "" H 9225 5550 50  0001 C CNN
	1    9225 5550
	0    -1   -1   0   
$EndComp
$Comp
L LED D2
U 1 1 5F60D91F
P 9675 5550
F 0 "D2" H 9675 5650 50  0000 C CNN
F 1 "LED" H 9675 5450 50  0000 C CNN
F 2 "" H 9675 5550 50  0001 C CNN
F 3 "" H 9675 5550 50  0001 C CNN
	1    9675 5550
	0    -1   -1   0   
$EndComp
$Comp
L VDD #PWR7
U 1 1 5F60DBFB
P 9450 4725
F 0 "#PWR7" H 9450 4575 50  0001 C CNN
F 1 "VDD" H 9450 4875 50  0000 C CNN
F 2 "" H 9450 4725 50  0001 C CNN
F 3 "" H 9450 4725 50  0001 C CNN
	1    9450 4725
	1    0    0    -1  
$EndComp
$Comp
L GND #PWR8
U 1 1 5F60DEBA
P 10125 3625
F 0 "#PWR8" H 10125 3375 50  0001 C CNN
F 1 "GND" H 10125 3475 50  0000 C CNN
F 2 "" H 10125 3625 50  0001 C CNN
F 3 "" H 10125 3625 50  0001 C CNN
	1    10125 3625
	0    -1   -1   0   
$EndComp
Text Notes 8975 3175 0    60   ~ 0
User buttons
Text Notes 8925 4500 0    60   ~ 0
LED indicators
Text Label 8975 3450 0    60   ~ 0
BTN1
Text Label 8975 3850 0    60   ~ 0
BTN2
Text Label 9225 6050 1    60   ~ 0
LED1
Text Label 9675 6050 1    60   ~ 0
LED2
Text Notes 8975 1475 0    60   ~ 0
LoRa (Remote control side)
$Comp
L RFM95 U5
U 1 1 5F60EFFE
P 9475 1850
F 0 "U5" H 9475 2125 60  0000 C CNN
F 1 "RFM95" H 9475 1400 60  0000 C CNN
F 2 "" H 9050 2125 60  0001 C CNN
F 3 "" H 9050 2125 60  0001 C CNN
	1    9475 1850
	1    0    0    -1  
$EndComp
$Comp
L +3V3 #PWR9
U 1 1 5F60F07D
P 10500 1725
F 0 "#PWR9" H 10500 1575 50  0001 C CNN
F 1 "+3V3" H 10500 1865 50  0000 C CNN
F 2 "" H 10500 1725 50  0001 C CNN
F 3 "" H 10500 1725 50  0001 C CNN
	1    10500 1725
	1    0    0    -1  
$EndComp
$Comp
L GND #PWR10
U 1 1 5F60F0A3
P 10500 2300
F 0 "#PWR10" H 10500 2050 50  0001 C CNN
F 1 "GND" H 10500 2150 50  0000 C CNN
F 2 "" H 10500 2300 50  0001 C CNN
F 3 "" H 10500 2300 50  0001 C CNN
	1    10500 2300
	1    0    0    -1  
$EndComp
$Comp
L GND #PWR6
U 1 1 5F60F0C9
P 8650 2250
F 0 "#PWR6" H 8650 2000 50  0001 C CNN
F 1 "GND" H 8650 2100 50  0000 C CNN
F 2 "" H 8650 2250 50  0001 C CNN
F 3 "" H 8650 2250 50  0001 C CNN
	1    8650 2250
	1    0    0    -1  
$EndComp
$Comp
L C C2
U 1 1 5F60F197
P 10500 2000
F 0 "C2" H 10525 2100 50  0000 L CNN
F 1 "10uF" H 10525 1900 50  0000 L CNN
F 2 "" H 10538 1850 50  0001 C CNN
F 3 "" H 10500 2000 50  0001 C CNN
	1    10500 2000
	1    0    0    -1  
$EndComp
Text Label 8675 1750 0    50   ~ 0
R_MISO
Text Label 8675 1825 0    50   ~ 0
R_MOSI
Text Label 8675 1900 0    50   ~ 0
R_SCK
Text Label 8675 1975 0    50   ~ 0
R_NSS
Text Label 8675 2050 0    50   ~ 0
R_RST
Text Label 8675 2125 0    50   ~ 0
R_DIO5
Text Label 10300 1675 2    50   ~ 0
R_DIO2
Text Label 10300 1750 2    50   ~ 0
R_DIO1
Text Label 10300 1825 2    50   ~ 0
R_DIO0
Text Label 10300 1975 2    50   ~ 0
R_DIO4
Text Label 10300 2050 2    50   ~ 0
R_DIO3
$Comp
L Antenna AE2
U 1 1 5F610560
P 10125 2550
F 0 "AE2" H 10050 2625 50  0000 R CNN
F 1 "Antenna" H 10050 2550 50  0000 R CNN
F 2 "" H 10125 2550 50  0001 C CNN
F 3 "" H 10125 2550 50  0001 C CNN
	1    10125 2550
	-1   0    0    1   
$EndComp
$Comp
L STM32F401RE U4
U 1 1 5F610E0C
P 7025 3350
F 0 "U4" H 6425 4900 50  0000 L CNN
F 1 "STM32F401RE" H 7225 4900 50  0000 L CNN
F 2 "Package_DFN_QFN:QFN-48-1EP_7x7mm_P0.5mm_EP5.6x5.6mm" H 6425 1850 50  0001 R CNN
F 3 "" H 7025 3350 50  0001 C CNN
	1    7025 3350
	1    0    0    -1  
$EndComp
$Comp
L STM32L476RG U1
U 1 1 5F610E45
P 2000 2975
F 0 "U1" H 1500 4325 50  0000 L CNN
F 1 "STM32L476RG" H 2300 4325 50  0000 L CNN
F 2 "Package_QFP:LQFP-48_7x7mm_P0.5mm" H 1500 1575 50  0001 R CNN
F 3 "" H 2000 2975 50  0001 C CNN
	1    2000 2975
	1    0    0    -1  
$EndComp
Text Notes 1600 5750 0    60   ~ 0
LoRa (Collar side)
$Comp
L RFM95 U2
U 1 1 5F611397
P 2400 6100
F 0 "U2" H 2400 6375 60  0000 C CNN
F 1 "RFM95" H 2400 5650 60  0000 C CNN
F 2 "" H 1975 6375 60  0001 C CNN
F 3 "" H 1975 6375 60  0001 C CNN
	1    2400 6100
	1    0    0    -1  
$EndComp
$Comp
L +3V3 #PWR4
U 1 1 5F61139D
P 3425 5975
F 0 "#PWR4" H 3425 5825 50  0001 C CNN
F 1 "+3V3" H 3425 6115 50  0000 C CNN
F 2 "" H 3425 5975 50  0001 C CNN
F 3 "" H 3425 5975 50  0001 C CNN
	1    3425 5975
	1    0    0    -1  
$EndComp
$Comp
L GND #PWR5
U 1 1 5F6113A3
P 3425 6550
F 0 "#PWR5" H 3425 6300 50  0001 C CNN
F 1 "GND" H 3425 6400 50  0000 C CNN
F 2 "" H 3425 6550 50  0001 C CNN
F 3 "" H 3425 6550 50  0001 C CNN
	1    3425 6550
	1    0    0    -1  
$EndComp
$Comp
L GND #PWR1
U 1 1 5F6113A9
P 1575 6500
F 0 "#PWR1" H 1575 6250 50  0001 C CNN
F 1 "GND" H 1575 6350 50  0000 C CNN
F 2 "" H 1575 6500 50  0001 C CNN
F 3 "" H 1575 6500 50  0001 C CNN
	1    1575 6500
	1    0    0    -1  
$EndComp
$Comp
L C C1
U 1 1 5F6113B3
P 3425 6250
F 0 "C1" H 3450 6350 50  0000 L CNN
F 1 "10uF" H 3450 6150 50  0000 L CNN
F 2 "" H 3463 6100 50  0001 C CNN
F 3 "" H 3425 6250 50  0001 C CNN
	1    3425 6250
	1    0    0    -1  
$EndComp
Text Label 1600 6000 0    50   ~ 0
C_MISO
Text Label 1600 6075 0    50   ~ 0
C_MOSI
Text Label 1600 6150 0    50   ~ 0
C_SCK
Text Label 1600 6225 0    50   ~ 0
C_NSS
Text Label 1600 6300 0    50   ~ 0
C_RST
Text Label 1600 6375 0    50   ~ 0
C_DIO5
Text Label 3225 5925 2    50   ~ 0
C_DIO2
Text Label 3225 6000 2    50   ~ 0
C_DIO1
Text Label 3225 6075 2    50   ~ 0
C_DIO0
Text Label 3225 6225 2    50   ~ 0
C_DIO4
Text Label 3225 6300 2    50   ~ 0
C_DIO3
$Comp
L Antenna AE1
U 1 1 5F6113D9
P 3050 6800
F 0 "AE1" H 2975 6875 50  0000 R CNN
F 1 "Antenna" H 2975 6800 50  0000 R CNN
F 2 "" H 3050 6800 50  0001 C CNN
F 3 "" H 3050 6800 50  0001 C CNN
	1    3050 6800
	-1   0    0    1   
$EndComp
$Comp
L GPS6MV2 U3
U 1 1 5F612B42
P 4100 4650
F 0 "U3" H 4100 5025 60  0000 C CNN
F 1 "GPS6MV2" V 4000 4675 60  0000 C CNN
F 2 "" H 4100 4650 60  0001 C CNN
F 3 "" H 4100 4650 60  0001 C CNN
	1    4100 4650
	-1   0    0    1   
$EndComp
Text Notes 3850 4100 2    60   ~ 0
GNSS
$Comp
L +3V3 #PWR3
U 1 1 5F612DD6
P 3250 5050
F 0 "#PWR3" H 3250 4900 50  0001 C CNN
F 1 "+3V3" H 3250 5190 50  0000 C CNN
F 2 "" H 3250 5050 50  0001 C CNN
F 3 "" H 3250 5050 50  0001 C CNN
	1    3250 5050
	-1   0    0    1   
$EndComp
$Comp
L GND #PWR2
U 1 1 5F612E08
P 3250 4325
F 0 "#PWR2" H 3250 4075 50  0001 C CNN
F 1 "GND" H 3250 4175 50  0000 C CNN
F 2 "" H 3250 4325 50  0001 C CNN
F 3 "" H 3250 4325 50  0001 C CNN
	1    3250 4325
	-1   0    0    1   
$EndComp
Text Label 3275 4575 0    60   ~ 0
GPS_TX
Text Label 3275 4725 0    60   ~ 0
GPS_RX
Text Label 600  2475 0    50   ~ 0
RCC_OSC32_IN
Text Label 600  2575 0    50   ~ 0
RCC_OSC32_OUT
Text Label 3000 1750 2    50   ~ 0
GPS_TX
Text Label 3000 1825 2    50   ~ 0
GPS_RX
Text Label 3000 1900 2    50   ~ 0
C_MISO
Text Label 3000 1975 2    50   ~ 0
C_MOSI
Text Label 3000 2975 2    50   ~ 0
DEBUG_TX
Text Label 3000 3075 2    50   ~ 0
DEBUG_RX
Text Label 600  3775 0    50   ~ 0
C_SCK
Text Label 600  3975 0    50   ~ 0
C_NSS
Wire Wire Line
	9225 4800 9225 4925
Wire Wire Line
	9225 4800 9675 4800
Wire Wire Line
	9675 4800 9675 4925
Wire Wire Line
	9450 4725 9450 4800
Connection ~ 9450 4800
Wire Wire Line
	9225 5225 9225 5400
Wire Wire Line
	9675 5225 9675 5400
Wire Wire Line
	9675 5700 9675 6050
Wire Wire Line
	9225 5700 9225 6050
Wire Wire Line
	8975 3450 9400 3450
Wire Wire Line
	8975 3850 9400 3850
Wire Wire Line
	9800 3450 10025 3450
Wire Wire Line
	10025 3450 10025 3850
Wire Wire Line
	10025 3850 9800 3850
Wire Wire Line
	10125 3625 10025 3625
Connection ~ 10025 3625
Wire Wire Line
	9000 1675 8650 1675
Wire Wire Line
	8650 1675 8650 2250
Wire Wire Line
	9000 2200 8650 2200
Connection ~ 8650 2200
Wire Wire Line
	10500 1850 10500 1725
Wire Wire Line
	10500 2150 10500 2300
Wire Wire Line
	9950 2125 10425 2125
Wire Wire Line
	10425 2125 10425 2175
Wire Wire Line
	10425 2175 10500 2175
Connection ~ 10500 2175
Wire Wire Line
	10500 1800 10425 1800
Wire Wire Line
	10425 1800 10425 1900
Wire Wire Line
	10425 1900 9950 1900
Connection ~ 10500 1800
Wire Wire Line
	8675 1750 9000 1750
Wire Wire Line
	9000 1825 8675 1825
Wire Wire Line
	8675 1900 9000 1900
Wire Wire Line
	9000 1975 8675 1975
Wire Wire Line
	8675 2050 9000 2050
Wire Wire Line
	9000 2125 8675 2125
Wire Wire Line
	9950 1675 10300 1675
Wire Wire Line
	10300 1750 9950 1750
Wire Wire Line
	9950 1825 10300 1825
Wire Wire Line
	10300 1975 9950 1975
Wire Wire Line
	9950 2050 10300 2050
Wire Wire Line
	9950 2200 10125 2200
Wire Wire Line
	10125 2200 10125 2350
Wire Wire Line
	1925 5925 1575 5925
Wire Wire Line
	1575 5925 1575 6500
Wire Wire Line
	1925 6450 1575 6450
Connection ~ 1575 6450
Wire Wire Line
	3425 6100 3425 5975
Wire Wire Line
	3425 6400 3425 6550
Wire Wire Line
	2875 6375 3350 6375
Wire Wire Line
	3350 6375 3350 6425
Wire Wire Line
	3350 6425 3425 6425
Connection ~ 3425 6425
Wire Wire Line
	3425 6050 3350 6050
Wire Wire Line
	3350 6050 3350 6150
Wire Wire Line
	3350 6150 2875 6150
Connection ~ 3425 6050
Wire Wire Line
	1600 6000 1925 6000
Wire Wire Line
	1925 6075 1600 6075
Wire Wire Line
	1600 6150 1925 6150
Wire Wire Line
	1925 6225 1600 6225
Wire Wire Line
	1600 6300 1925 6300
Wire Wire Line
	1925 6375 1600 6375
Wire Wire Line
	2875 5925 3225 5925
Wire Wire Line
	3225 6000 2875 6000
Wire Wire Line
	2875 6075 3225 6075
Wire Wire Line
	3225 6225 2875 6225
Wire Wire Line
	2875 6300 3225 6300
Wire Wire Line
	2875 6450 3050 6450
Wire Wire Line
	3050 6450 3050 6600
Wire Notes Line
	5350 750  5350 7475
Wire Wire Line
	3250 4325 3250 4425
Wire Wire Line
	3250 4425 3675 4425
Wire Wire Line
	3675 4875 3250 4875
Wire Wire Line
	3250 4875 3250 5050
Wire Wire Line
	3675 4575 3275 4575
Wire Wire Line
	3275 4725 3675 4725
Wire Wire Line
	600  2475 1400 2475
Wire Wire Line
	1400 2575 600  2575
Wire Wire Line
	600  3775 1400 3775
Wire Wire Line
	600  3975 1400 3975
Wire Wire Line
	3000 3075 2600 3075
Wire Wire Line
	2600 2975 3000 2975
Wire Wire Line
	3000 1975 2600 1975
Wire Wire Line
	2600 1900 3000 1900
Wire Wire Line
	3000 1825 2600 1825
Wire Wire Line
	2600 1750 3000 1750
Text Label 5700 2650 0    50   ~ 0
RCC_OSC_IN
Text Label 5700 2750 0    50   ~ 0
RCC_OSC_OUT
Text Label 8175 1925 2    50   ~ 0
BTN1
Text Label 8175 2000 2    50   ~ 0
BTN2
Text Label 8175 2075 2    50   ~ 0
R_MISO
Text Label 8175 2150 2    50   ~ 0
R_MOSI
Text Label 8175 3450 2    50   ~ 0
R_DEBUG_TX
Text Label 8175 3550 2    50   ~ 0
R_DEBUG_RX
Text Label 8175 2300 2    50   ~ 0
LED1
Text Label 5700 4350 0    50   ~ 0
R_SCK
Text Label 5700 4450 0    50   ~ 0
R_NSS
Text Label 8175 2375 2    50   ~ 0
LED2
Text Label 5700 3750 0    50   ~ 0
R_RST
Wire Wire Line
	5700 2650 6325 2650
Wire Wire Line
	5700 2750 6325 2750
Wire Wire Line
	5700 3750 6325 3750
Wire Wire Line
	5700 4350 6325 4350
Wire Wire Line
	7625 1925 8175 1925
Wire Wire Line
	8175 2000 7625 2000
Wire Wire Line
	7625 2075 8175 2075
Wire Wire Line
	8175 2150 7625 2150
Wire Wire Line
	7625 3450 8175 3450
Wire Wire Line
	8175 3550 7625 3550
Wire Wire Line
	7625 2300 8175 2300
Wire Wire Line
	8175 2375 7625 2375
Wire Wire Line
	5700 4450 6325 4450
$EndSCHEMATC
